{
    "name": "Ordem",
    "alias": "ordem",
    "description": "",
    "keywords": [],
    "active": 1,
    "order": 0,
    "providers": [
        "Modules\\Ordem\\Providers\\OrdemServiceProvider"
    ],
    "aliases":{},
    "files": [
        "start.php"
    ]
}